<?xml version="1.0" encoding="UTF-8"?>
<svg width="34px" height="35px" viewBox="0 0 34 35" version="1.1" xmlns="http://www.w3.org/2000/svg" xmlns:xlink="http://www.w3.org/1999/xlink">
    <g id="Page-1" stroke="none" stroke-width="1" fill="none" fill-rule="evenodd">
        <g id="Ambulance" transform="translate(-1515.000000, -1034.000000)" fill="#000000">
            <g id="Group" transform="translate(1531.506097, 1052.162951) rotate(-45.000000) translate(-1531.506097, -1052.162951) translate(1510.506097, 1044.162951)">
                <rect id="Rectangle" x="4.54747351e-13" y="3.95331742" width="31.7" height="7.78567285" rx="3.89283642"></rect>
                <path d="M34.423401,-4.88498131e-13 C37.5283044,-4.89068492e-13 40.1856519,1.91621432 41.2773505,4.63054984 L35.9176057,4.63049976 L34.061047,7.84615385 L35.9176057,11.0618079 L41.2773505,11.0617579 C40.1856519,13.7760934 37.5283044,15.6923077 34.423401,15.6923077 C30.3449905,15.6923077 27.0387856,12.3861028 27.0387856,8.30769231 L27.0387856,7.38461538 C27.0387856,3.30620492 30.3449905,-4.87748939e-13 34.423401,-4.88498131e-13 Z" id="Combined-Shape"></path>
            </g>
        </g>
    </g>
</svg>